-36 -19 83 -53 -2 49 66 15 15 49 66 -19 83 -2 49 -2 66 49 -53 32 -19 66 83 66 32 83
15 -2 -36 -2 -19 -36 32 49 66 15 83 -2 -36 66 66 49 15 83 -2 15 49 83 66 -53 32 15
-2 83 -53 32 66 -19 49 -2 -19 -36 66 83 49 66 49 -19 83 -19 83 32 -36 15 15 49 -53 -2
32 83 -19 -19 -53 49 49 -53 -36 -2 15 49 -53 15 -2 15 -53 -53 -2 83 -36 49 49 -36 -36 32
-2 -36 -36 66 15 83 49 -53 49 -53 66 -36 66 -53 -53 -19 49 -2 -53 83 -53 -36 32 -36 32 -19
32 83 -53 -2 -2 49 66 66 66 -2 83 -19 15 32 15 32 -36 66 15 15 83 83 49 -2 15 -53
-53 -53 15 32 15 -2 -53 49 -36 83 -36 66 -19 -36 49 -36 32 -53 -36 49 15 -36 15 66 66 66
32 -2 -2 -2 49 -53 83 -2 -2 83 32 66 66 66 15 32 -19 -36 -19 83 83 -19 49 -2 -2 -19
-53 -53 15 -36 49 49 49 -19 -2 83 15 -53 -36 -2 -36 32 83 83 66 -2 83 32 66 66 15 -2
83 66 83 49 -36 -2 -2 49 66 -19 15 -19 49 -53 32 -2 66 -2 83 32 49 32 -19 -53 83 -53
49 32 -36 -19 -36 -36 -53 49 15 66 66 -2 -53 49 49 -53 -36 -53 66 -53 -53 -2 -36 32 49 83
66 -53 66 83 -2 32 -53 -53 -36 49 -36 -2 15 15 49 -53 49 -19 32 66 -19 -19 66 -36 49 -19
32 -53 66 49 -53 49 49 -2 15 -2 -53 83 66 32 49 32 -2 -36 -2 -36 32 -36 -53 32 83 66
-36 -19 -19 49 83 -19 -2 83 83 15 -2 -2 32 15 -53 66 -19 66 15 -53 -19 49 49 66 49 15
66 -2 -2 15 -2 32 15 49 -53 -2 49 -53 32 49 -2 83 49 66 15 15 -19 -2 -53 -2 15 -2
66 32 83 83 -36 32 83 -36 -2 -19 -19 -2 32 -2 -2 -53 66 -19 83 83 32 66 15 66 15 66
49 -36 66 15 15 -19 83 15 15 -19 66 49 -36 32 -2 15 83 49 -36 -36 66 32 -36 83 -53 15
32 83 66 32 -36 -19 83 -36 15 -2 -19 -19 -36 66 -19 -53 83 -19 83 66 83 49 -36 49 83 32
83 15 -19 66 -36 32 15 -53 49 -36 -53 32 32 66 -36 -2 -19 15 66 32 66 83 32 -36 -53 -53
-53 66 -53 -19 -53 -36 -53 66 66 -53 66 66 -2 -2 -2 66 83 32 -19 83 49 83 49 -36 15 66
32 66 -19 -19 49 -2 -2 32 49 15 -36 -19 32 -53 -53 49 66 66 15 -2 49 15 -19 -53 66 15
83 83 32 83 66 -36 -53 83 -36 83 83 66 -53 -53 -53 32 -36 15 83 66 15 -19 -36 15 66 49
32 -2 -36 32 83 -36 -2 66 -19 -53 -19 -19 49 15 -53 83 -53 -36 -53 -19 -36 32 83 83 -2 66
15 49 -2 15 66 32 66 83 66 -19 49 -2 49 66 -2 49 32 -36 66 -2 15 66 -36 49 15 -2
15 66 83 -36 32 15 -19 83 15 15 15 -2 -2 49 49 -53 -36 66 83 66 15 -36 83 49 49 -2
-19 -2 66 -53 -19 -36 -36 15 32 32 83 49 49 -19 15 -2 83 15 15 -36 83 -19 32 83 15 49
